…
``` r
library(ggplot2)
```

### Load the carInsurance data set about the insurance risk rating of cars based on several characteristics of each car

``` r
load("../data/02_data/carInsurance.Rdata") 
carIns
```

    ## # A tibble: 205 × 26
    ##     symb normLoss make        fuelType aspiration nDoors bodyStyle   driveWheels
    ##    <int>    <int> <fct>       <fct>    <fct>      <fct>  <fct>       <fct>      
    ##  1     3       NA alfa-romero gas      std        two    convertible rwd        
    ##  2     3       NA alfa-romero gas      std        two    convertible rwd        
    ##  3     1       NA alfa-romero gas      std        two    hatchback   rwd        
    ##  4     2      164 audi        gas      std        four   sedan       fwd        
    ##  5     2      164 audi        gas      std        four   sedan       4wd        
    ##  6     2       NA audi        gas      std        two    sedan       fwd        
    ##  7     1      158 audi        gas      std        four   sedan       fwd        
    ##  8     1       NA audi        gas      std        four   wagon       fwd        
    ##  9     1      158 audi        gas      turbo      four   sedan       fwd        
    ## 10     0       NA audi        gas      turbo      two    hatchback   4wd        
    ## # ℹ 195 more rows
    ## # ℹ 18 more variables: engineLocation <fct>, wheelBase <dbl>, length <dbl>,
    ## #   width <dbl>, height <dbl>, curbWeight <int>, engineType <fct>,
    ## #   nrCylinds <fct>, engineSize <int>, fuelSystem <fct>, bore <dbl>,
    ## #   stroke <dbl>, compressionRatio <dbl>, horsePower <int>, peakRpm <int>,
    ## #   cityMpg <int>, highwayMpg <int>, price <int>
…
